<svg width="20" height="20" viewBox="0 0 20 20" fill="none" xmlns="http://www.w3.org/2000/svg">
<path fill-rule="evenodd" clip-rule="evenodd" d="M17.2925 18.2831H11.2483C10.9033 18.2831 10.6233 18.0031 10.6233 17.6581C10.6233 17.3131 10.9033 17.0331 11.2483 17.0331H17.2925C17.6375 17.0331 17.9175 17.3131 17.9175 17.6581C17.9175 18.0031 17.6375 18.2831 17.2925 18.2831Z" fill="#333333" fill-opacity="0.8"/>
<mask id="mask0" mask-type="alpha" maskUnits="userSpaceOnUse" x="1" y="2" width="15" height="17">
<path fill-rule="evenodd" clip-rule="evenodd" d="M1.66699 2.50018H15.9841V18.2831H1.66699V2.50018Z" fill="#333333" fill-opacity="0.8"/>
</mask>
<g mask="url(#mask0)">
<path fill-rule="evenodd" clip-rule="evenodd" d="M10.9256 4.18067L3.07978 13.9932C2.93728 14.1715 2.88478 14.4015 2.93728 14.6223L3.50478 17.0265L6.03728 16.9948C6.27811 16.9923 6.50061 16.8848 6.64811 16.7015C9.32895 13.3473 14.4398 6.95234 14.5848 6.76484C14.7214 6.54317 14.7748 6.22984 14.7031 5.92817C14.6298 5.619 14.4373 5.3565 14.1598 5.189C14.1006 5.14817 12.6964 4.05817 12.6531 4.024C12.1248 3.60067 11.3539 3.674 10.9256 4.18067ZM3.01139 18.2832C2.72222 18.2832 2.47055 18.0849 2.40305 17.8024L1.72055 14.9099C1.57972 14.3107 1.71972 13.6924 2.10389 13.2124L9.95389 3.39405C9.95722 3.39072 9.95972 3.38655 9.96305 3.38322C10.8239 2.35405 12.3806 2.20239 13.4306 3.04489C13.4722 3.07739 14.8664 4.16072 14.8664 4.16072C15.3731 4.46239 15.7689 5.00155 15.9189 5.63989C16.0681 6.27155 15.9597 6.92322 15.6122 7.47405C15.5864 7.51489 15.5639 7.54989 7.62389 17.4832C7.24139 17.9599 6.66805 18.2374 6.05222 18.2449L3.01972 18.2832H3.01139Z" fill="#333333" fill-opacity="0.8"/>
</g>
<path fill-rule="evenodd" clip-rule="evenodd" d="M13.5196 9.73741C13.3863 9.73741 13.2529 9.69491 13.1388 9.60824L8.59543 6.11824C8.3221 5.90824 8.27043 5.51658 8.48043 5.24158C8.69126 4.96824 9.08293 4.91741 9.3571 5.12741L13.9013 8.61658C14.1746 8.82658 14.2263 9.21908 14.0154 9.49324C13.8929 9.65324 13.7071 9.73741 13.5196 9.73741Z" fill="#333333" fill-opacity="0.8"/>
</svg>
