<svg width="20" height="20" viewBox="0 0 20 20" fill="none" xmlns="http://www.w3.org/2000/svg">
<path fill-rule="evenodd" clip-rule="evenodd" d="M18.2407 13.2463H14.8674C13.2865 13.2463 11.9999 11.9605 11.999 10.3805C11.999 8.79879 13.2857 7.51212 14.8674 7.51129H18.2407C18.5857 7.51129 18.8657 7.79129 18.8657 8.13629C18.8657 8.48129 18.5857 8.76129 18.2407 8.76129H14.8674C13.9749 8.76212 13.249 9.48796 13.249 10.3796C13.249 11.2705 13.9757 11.9963 14.8674 11.9963H18.2407C18.5857 11.9963 18.8657 12.2763 18.8657 12.6213C18.8657 12.9663 18.5857 13.2463 18.2407 13.2463Z" fill="white" fill-opacity="0.8"/>
<path fill-rule="evenodd" clip-rule="evenodd" d="M15.2488 10.953H14.9888C14.6438 10.953 14.3638 10.673 14.3638 10.328C14.3638 9.983 14.6438 9.703 14.9888 9.703H15.2488C15.5938 9.703 15.8738 9.983 15.8738 10.328C15.8738 10.673 15.5938 10.953 15.2488 10.953Z" fill="white" fill-opacity="0.8"/>
<mask id="mask0" mask-type="alpha" maskUnits="userSpaceOnUse" x="1" y="2" width="18" height="17">
<path fill-rule="evenodd" clip-rule="evenodd" d="M1.66675 2.5H18.8656V18.4774H1.66675V2.5Z" fill="white"/>
</mask>
<g mask="url(#mask0)">
<path fill-rule="evenodd" clip-rule="evenodd" d="M6.66459 3.75C4.59793 3.75 2.91626 5.43167 2.91626 7.49833V13.4792C2.91626 15.5458 4.59793 17.2275 6.66459 17.2275H13.8679C15.9346 17.2275 17.6154 15.5458 17.6154 13.4792V7.49833C17.6154 5.43167 15.9346 3.75 13.8679 3.75H6.66459ZM13.8679 18.4775H6.66459C3.90876 18.4775 1.66626 16.235 1.66626 13.4792V7.49833C1.66626 4.74167 3.90876 2.5 6.66459 2.5H13.8679C16.6238 2.5 18.8654 4.74167 18.8654 7.49833V13.4792C18.8654 16.235 16.6238 18.4775 13.8679 18.4775Z" fill="white" fill-opacity="0.8"/>
</g>
<path fill-rule="evenodd" clip-rule="evenodd" d="M10.5707 7.53174H6.07153C5.72653 7.53174 5.44653 7.25174 5.44653 6.90674C5.44653 6.56174 5.72653 6.28174 6.07153 6.28174H10.5707C10.9157 6.28174 11.1957 6.56174 11.1957 6.90674C11.1957 7.25174 10.9157 7.53174 10.5707 7.53174Z" fill="white" fill-opacity="0.8"/>
</svg>
