<svg width="20" height="20" viewBox="0 0 20 20" fill="none" xmlns="http://www.w3.org/2000/svg">
<mask id="mask0" mask-type="alpha" maskUnits="userSpaceOnUse" x="2" y="1" width="15" height="18">
<path fill-rule="evenodd" clip-rule="evenodd" d="M2.50024 1.67639H16.7104V18.221H2.50024V1.67639Z" fill="white"/>
</mask>
<g mask="url(#mask0)">
<path fill-rule="evenodd" clip-rule="evenodd" d="M6.31119 2.92639C4.93036 2.92639 3.78369 4.04472 3.75119 5.42389V14.3564C3.72119 15.7739 4.83786 16.9406 6.24203 16.9714H12.9779C14.3687 16.9214 15.4695 15.7739 15.4604 14.3606V6.94972L11.5987 2.92639H6.32119H6.31119ZM6.32113 18.2214H6.21613C4.1228 18.1764 2.45613 16.4364 2.50113 14.3431V5.40889C2.5503 3.34139 4.25697 1.67639 6.30863 1.67639H6.32363H11.8645C12.0345 1.67639 12.197 1.74556 12.3153 1.86806L16.537 6.26556C16.6478 6.38139 16.7103 6.53722 16.7103 6.69806V14.3564C16.7236 16.4472 15.0936 18.1464 12.9995 18.2214H6.32113Z" fill="white" fill-opacity="0.8"/>
</g>
<path fill-rule="evenodd" clip-rule="evenodd" d="M16.0817 7.48699H13.7867C12.2609 7.48283 11.0217 6.23949 11.0217 4.71616V2.29199C11.0217 1.94699 11.3017 1.66699 11.6467 1.66699C11.9917 1.66699 12.2717 1.94699 12.2717 2.29199V4.71616C12.2717 5.55283 12.9517 6.23449 13.7884 6.23699H16.0817C16.4267 6.23699 16.7067 6.51699 16.7067 6.86199C16.7067 7.20699 16.4267 7.48699 16.0817 7.48699Z" fill="white" fill-opacity="0.8"/>
<path fill-rule="evenodd" clip-rule="evenodd" d="M9.28467 13.9169C8.93967 13.9169 8.65967 13.6369 8.65967 13.2919V8.25769C8.65967 7.91269 8.93967 7.63269 9.28467 7.63269C9.62967 7.63269 9.90967 7.91269 9.90967 8.25769V13.2919C9.90967 13.6369 9.62967 13.9169 9.28467 13.9169Z" fill="white" fill-opacity="0.8"/>
<path fill-rule="evenodd" clip-rule="evenodd" d="M7.33085 10.8456C7.17168 10.8456 7.01168 10.7847 6.89002 10.6631C6.64585 10.4197 6.64418 10.0247 6.88835 9.77974L8.84168 7.8164C9.07668 7.58057 9.49335 7.58057 9.72752 7.8164L11.6825 9.77974C11.9258 10.0247 11.925 10.4197 11.6808 10.6631C11.4358 10.9064 11.04 10.9064 10.7967 10.6614L9.28502 9.14307L7.77335 10.6614C7.65168 10.7847 7.49085 10.8456 7.33085 10.8456Z" fill="white" fill-opacity="0.8"/>
</svg>
