<svg width="8" height="6" viewBox="0 0 8 6" fill="none" xmlns="http://www.w3.org/2000/svg">
<path d="M7.96736 0.941227L3.00713 5.90145C2.96344 5.94514 2.8927 5.94514 2.84911 5.90145L0.0326915 3.08493C-0.0108972 3.04145 -0.0108972 2.9707 0.0326915 2.92701L0.717044 2.24266C0.760734 2.19907 0.831477 2.19907 0.875065 2.24266L2.92822 4.29572L7.12509 0.0988536C7.16888 0.0552649 7.23942 0.0552649 7.28311 0.0988536L7.96736 0.783206C8.01105 0.826794 8.01105 0.897434 7.96736 0.941227Z" fill="#00AB6B"/>
</svg>
