<svg width="20" height="20" viewBox="0 0 20 20" fill="none" xmlns="http://www.w3.org/2000/svg">
<path d="M4.16663 10L4.16663 3.33333" stroke="#333333" stroke-width="1.4" stroke-linecap="round"/>
<path d="M15.8334 16.6667L15.8334 15" stroke="#333333" stroke-width="1.4" stroke-linecap="round"/>
<path d="M4.16663 16.6667L4.16663 13.3334" stroke="#333333" stroke-width="1.4" stroke-linecap="round"/>
<path d="M15.8334 10L15.8334 3.33333" stroke="#333333" stroke-width="1.4" stroke-linecap="round"/>
<path d="M10 5.83331L10 3.33331" stroke="#333333" stroke-width="1.4" stroke-linecap="round"/>
<path d="M10 16.6667L10 10" stroke="#333333" stroke-width="1.4" stroke-linecap="round"/>
<ellipse cx="4.16667" cy="11.6667" rx="1.66667" ry="1.66667" stroke="#333333" stroke-width="1.4" stroke-linecap="round"/>
<ellipse cx="10" cy="7.49998" rx="1.66667" ry="1.66667" stroke="#333333" stroke-width="1.4" stroke-linecap="round"/>
<ellipse cx="15.8333" cy="12.5" rx="1.66667" ry="1.66667" stroke="#333333" stroke-width="1.4" stroke-linecap="round"/>
</svg>
