<svg width="18" height="18" viewBox="0 0 18 18" fill="none" xmlns="http://www.w3.org/2000/svg">
<mask id="mask0" mask-type="alpha" maskUnits="userSpaceOnUse" x="0" y="0" width="18" height="18">
<path d="M0 0.0620728H17.938V17.9382H0V0.0620728Z" fill="white"/>
</mask>
<g mask="url(#mask0)">
<path fill-rule="evenodd" clip-rule="evenodd" d="M16.2538 17.9382H1.68421C0.757931 17.9382 0 17.183 0 16.2598V1.74048C0 0.81739 0.757931 0.0620728 1.68421 0.0620728H16.2538C17.1802 0.0620728 17.938 0.81739 17.938 1.74048V16.2598C17.938 17.183 17.1802 17.9382 16.2538 17.9382Z" fill="#E82529"/>
</g>
<path fill-rule="evenodd" clip-rule="evenodd" d="M3.87018 3.42816H4.72004C4.78475 3.42816 4.83445 3.48533 4.82523 3.54913L4.43054 6.27769C4.41535 6.38271 4.49712 6.47674 4.60357 6.47674H6.09445C6.13681 6.47674 6.16926 6.51423 6.16309 6.55594L6.04743 7.33962C6.04145 7.38034 6.00638 7.41057 5.96503 7.41057H4.27926C3.77781 7.41057 3.29692 7.00073 3.36767 6.50598L3.76485 3.52015C3.77183 3.46751 3.81686 3.42816 3.87018 3.42816Z" fill="#FEFEFE"/>
<path fill-rule="evenodd" clip-rule="evenodd" d="M6.70407 4.51689L6.31505 7.29957C6.30888 7.3437 6.34326 7.38311 6.38798 7.38311H7.21038C7.26886 7.38311 7.31844 7.34016 7.32654 7.28244L7.71176 4.54501C7.71998 4.48195 7.67072 4.42603 7.60688 4.42603H6.80883C6.75602 4.42603 6.71136 4.46482 6.70407 4.51689Z" fill="#FEFEFE"/>
<path fill-rule="evenodd" clip-rule="evenodd" d="M8.40036 7.16976C8.14662 7.16064 8.0279 7.2399 7.87817 7.3289C7.9143 7.07802 8.19763 5.12291 8.22348 5.00281C8.25082 4.87476 8.27567 4.66112 8.38865 4.55337C8.52107 4.42687 8.72604 4.3545 9.74588 4.35121C10.7869 4.34786 10.9886 5.09448 10.9333 5.57961C10.8862 5.99486 10.7313 7.02079 10.6876 7.30743C10.6809 7.351 10.6436 7.38309 10.5995 7.38309H9.79539C9.73647 7.38309 9.69119 7.33132 9.69941 7.27323C9.74008 6.98659 9.84914 6.22246 9.88614 6.00057C9.93204 5.7261 9.96879 5.42407 9.8953 5.30484C9.8218 5.18585 9.60132 5.09448 9.17885 5.16772L8.86637 7.3695C8.86637 7.3695 8.66532 7.17932 8.40036 7.16976Z" fill="#FEFEFE"/>
<path fill-rule="evenodd" clip-rule="evenodd" d="M11.8055 3.27008H12.6975C12.7307 3.27008 12.7562 3.29931 12.7517 3.33209L12.1966 7.33926C12.1925 7.36899 12.167 7.39115 12.1368 7.39115H11.2561C11.2195 7.39115 11.1913 7.35894 11.1964 7.32281L11.7513 3.31719C11.755 3.29019 11.7781 3.27008 11.8055 3.27008Z" fill="#FEFEFE"/>
<path fill-rule="evenodd" clip-rule="evenodd" d="M12.4957 5.68445L13.5039 4.50793C13.5356 4.47088 13.5821 4.44952 13.631 4.44952H14.516C14.5799 4.44952 14.6136 4.52494 14.5708 4.57217L13.54 5.71219L14.4823 7.73179C14.5169 7.8059 14.4626 7.89069 14.3806 7.89069H13.5807C13.5389 7.89069 13.501 7.86642 13.4835 7.82862L12.4957 5.68445Z" fill="#FEFEFE"/>
<path fill-rule="evenodd" clip-rule="evenodd" d="M7.88405 3.67256C7.81193 3.97577 7.53794 4.20139 7.25106 4.20139C6.96425 4.20139 6.74426 3.9556 6.81645 3.65245C6.88857 3.34925 7.12606 3.10345 7.46644 3.10345C7.75326 3.10345 7.95618 3.36936 7.88405 3.67256Z" fill="#FEFEFE"/>
<path fill-rule="evenodd" clip-rule="evenodd" d="M8.79079 8.09243C8.71867 8.39563 8.44468 8.62125 8.1578 8.62125C7.87098 8.62125 7.651 8.37546 7.72319 8.07232C7.79531 7.76911 8.0328 7.52332 8.37318 7.52332C8.66 7.52332 8.86292 7.78922 8.79079 8.09243Z" fill="#FEFEFE"/>
<path fill-rule="evenodd" clip-rule="evenodd" d="M13.1057 11.7158C13.0449 12.0154 12.768 12.2383 12.4665 12.2381C12.1648 12.238 11.9214 11.9949 11.9821 11.6954C12.0429 11.3958 12.2804 11.153 12.6383 11.1531C12.9399 11.1533 13.1665 11.4162 13.1057 11.7158Z" fill="#FEFEFE"/>
<path fill-rule="evenodd" clip-rule="evenodd" d="M5.51287 10.2235H4.97281C4.95275 10.2235 4.93899 10.2034 4.94634 10.1848L5.41633 8.9959C5.4253 8.97325 5.45881 8.97809 5.46099 9.0023L5.56662 10.1648C5.56949 10.1963 5.54464 10.2235 5.51287 10.2235ZM6.8212 11.7164L6.21855 8.12166C6.1922 7.9645 6.05567 7.84937 5.89579 7.84937H5.29108C5.10666 7.84937 4.93924 7.95668 4.86288 8.12396L3.23945 11.7209C3.21591 11.7731 3.2544 11.832 3.31176 11.8317L4.15527 11.8268C4.21301 11.8265 4.26495 11.792 4.2875 11.7391L4.5679 11.0817C4.5755 11.0638 4.59313 11.0522 4.61268 11.0522H5.63351C5.65855 11.0522 5.67954 11.0711 5.68197 11.0959L5.74288 11.718C5.74992 11.7904 5.81102 11.8456 5.88402 11.8456H6.7114C6.78022 11.8456 6.83254 11.784 6.8212 11.7164Z" fill="#FEFEFE"/>
<path fill-rule="evenodd" clip-rule="evenodd" d="M6.41879 12.3676L6.61361 12.9674C6.64861 13.0661 6.67502 13.088 6.74347 13.0736C6.98956 13.0219 7.58418 12.8468 7.87511 12.4546C8.25435 11.9433 8.30636 11.0393 8.37331 10.5798C8.42843 10.2014 8.54914 9.26988 8.59 8.95326C8.59735 8.89629 8.55282 8.84595 8.49514 8.84595H7.73895C7.67212 8.84595 7.61563 8.89511 7.60666 8.96109C7.54569 9.40829 7.32608 11.0164 7.28771 11.2393C7.24311 11.4987 7.23421 11.8723 6.84917 12.0953C6.65702 12.2065 6.55849 12.2278 6.48244 12.2632C6.44376 12.2812 6.40004 12.3005 6.41879 12.3676Z" fill="#FEFEFE"/>
<path fill-rule="evenodd" clip-rule="evenodd" d="M10.5802 10.9829C10.5802 10.9829 10.1859 11.1166 9.99664 10.975C9.80729 10.8336 9.79153 10.5428 9.90196 10.1263C10.0124 9.70964 10.2884 9.63895 10.4067 9.63106C10.5251 9.62318 10.7475 9.67898 10.7475 9.67898L10.5802 10.9829ZM11.6721 8.95358C11.4171 8.89002 10.9884 8.75037 10.2993 8.80071C9.66342 8.84713 8.94541 9.14022 8.81094 10.3911C8.67647 11.642 9.25029 11.8832 10.0751 11.919C10.6796 11.9452 11.154 11.7795 11.3644 11.689C11.4376 11.6576 11.4886 11.5901 11.4994 11.5113L11.8041 9.10298C11.8161 9.0074 11.7681 8.97748 11.6721 8.95358Z" fill="#FEFEFE"/>
<path fill-rule="evenodd" clip-rule="evenodd" d="M12.2603 10.7544L12.4823 8.44823C12.4902 8.36561 12.5598 8.33191 12.6431 8.33191H13.4086C13.4799 8.33191 13.5101 8.38585 13.4904 8.47417L13.0232 10.7834C13.0137 10.8281 12.9742 10.8601 12.9284 10.8601H12.3567C12.2996 10.8601 12.2549 10.8111 12.2603 10.7544Z" fill="#FEFEFE"/>
<path fill-rule="evenodd" clip-rule="evenodd" d="M3.302 15.0069C3.45359 15.0904 3.63067 15.1146 3.79921 15.0748C4.47056 14.9163 5.95628 14.4896 9.09906 14.0369C13.0475 13.4681 15.9627 13.4704 15.9627 13.4704L15.9704 13.4658C15.9704 13.4658 13.3865 13.112 9.14577 13.5247C4.90499 13.9375 2.53809 14.5862 2.53809 14.5862L3.302 15.0069Z" fill="#FEFEFE"/>
</svg>
