<svg width="80" height="17" viewBox="0 0 80 17" fill="none" xmlns="http://www.w3.org/2000/svg">
<path d="M41.5015 5.87362C41.0762 5.36258 40.5355 4.95994 39.924 4.69889C39.2004 4.40279 38.4233 4.25993 37.6417 4.27935C37.0657 4.2612 36.4927 4.37006 35.9635 4.5982C35.4983 4.80623 35.0897 5.12274 34.772 5.5212H34.621V1.34252C34.6177 1.19503 34.583 1.04992 34.5194 0.91683C34.4557 0.783738 34.3645 0.665703 34.2518 0.570559C33.9804 0.328303 33.625 0.201816 33.2616 0.21814C32.8831 0.202486 32.5123 0.328092 32.2212 0.570559C32.1137 0.668089 32.0282 0.787356 31.9703 0.920446C31.9125 1.05354 31.8835 1.19741 31.8855 1.34252V11.999C31.8797 12.6479 31.9993 13.2918 32.2379 13.8953C32.4649 14.4765 32.8206 14.9986 33.2784 15.4225C33.7627 15.8698 34.334 16.2126 34.9566 16.4294C35.7426 16.6808 36.5649 16.7999 37.39 16.7818C38.1895 16.802 38.9844 16.6533 39.7226 16.3455C40.3613 16.0739 40.9338 15.6674 41.4008 15.154C41.8406 14.667 42.1774 14.0962 42.3909 13.4758C42.6079 12.7921 42.7155 12.0785 42.7098 11.3613V9.88448C42.7146 9.1288 42.6071 8.37661 42.3909 7.65249C42.2157 7.00629 41.9133 6.40154 41.5015 5.87362ZM39.924 11.3613C39.9704 12.1096 39.7304 12.8475 39.2527 13.4254C39.0267 13.6804 38.7468 13.8819 38.4334 14.0154C38.1199 14.1489 37.7807 14.2111 37.4403 14.1974C36.751 14.2216 36.0694 14.0468 35.4768 13.694C35.2119 13.5301 34.9978 13.2958 34.8585 13.0172C34.7192 12.7386 34.6602 12.4267 34.6881 12.1165V9.33068C34.6718 8.98405 34.7309 8.638 34.8613 8.31641C34.9916 7.99482 35.1902 7.70533 35.4433 7.46789C35.9191 7.08601 36.5114 6.87871 37.1215 6.88053C37.487 6.86463 37.8519 6.92506 38.1929 7.05797C38.5338 7.19088 38.8433 7.39336 39.1017 7.65249C39.6438 8.27772 39.9154 9.09261 39.8569 9.91804L39.924 11.3613Z" fill="#DBDBDB"/>
<path d="M47.1906 4.27936C46.812 4.2637 46.4412 4.38931 46.1501 4.63178C46.0303 4.72293 45.9321 4.83937 45.8625 4.9728C45.7929 5.10623 45.7536 5.25337 45.7473 5.40374V15.6071C45.7536 15.7575 45.7929 15.9046 45.8625 16.038C45.9321 16.1715 46.0303 16.2879 46.1501 16.3791C46.4412 16.6215 46.812 16.7471 47.1906 16.7315C47.554 16.7478 47.9093 16.6213 48.1807 16.3791C48.2934 16.2839 48.3847 16.1659 48.4483 16.0328C48.512 15.8997 48.5466 15.7546 48.5499 15.6071V5.40374C48.5466 5.25625 48.512 5.11114 48.4483 4.97805C48.3847 4.84496 48.2934 4.72692 48.1807 4.63178C47.9093 4.38952 47.554 4.26303 47.1906 4.27936Z" fill="#DBDBDB"/>
<path d="M47.1906 -2.8278e-05C46.812 -0.0156829 46.4412 0.109923 46.1501 0.35239C46.0295 0.442723 45.9306 0.558979 45.8609 0.692586C45.7912 0.826193 45.7524 0.973742 45.7473 1.12435V1.67816C45.7524 1.82877 45.7912 1.97632 45.8609 2.10992C45.9306 2.24353 46.0295 2.35979 46.1501 2.45012C46.4412 2.69259 46.812 2.81819 47.1906 2.80254C47.5537 2.81709 47.9084 2.69083 48.1807 2.45012C48.2934 2.35498 48.3847 2.23694 48.4483 2.10385C48.512 1.97076 48.5466 1.82565 48.5499 1.67816V1.10757C48.5466 0.960079 48.512 0.814972 48.4483 0.681879C48.3847 0.548787 48.2934 0.430753 48.1807 0.335608C47.9059 0.100955 47.5514 -0.0191953 47.1906 -2.8278e-05Z" fill="#DBDBDB"/>
<path d="M61.5893 5.87362C61.164 5.36258 60.6233 4.95994 60.0118 4.69889C59.2882 4.40279 58.5111 4.25993 57.7295 4.27935C57.1535 4.2612 56.5805 4.37006 56.0513 4.5982C55.5861 4.80623 55.1775 5.12274 54.8598 5.5212H54.7088V1.34252C54.7055 1.19503 54.6709 1.04992 54.6072 0.91683C54.5435 0.783738 54.4523 0.665703 54.3396 0.570559C54.0682 0.328303 53.7128 0.201816 53.3494 0.21814C52.9709 0.202486 52.6001 0.328092 52.309 0.570559C52.2106 0.67249 52.1344 0.79373 52.0853 0.926609C52.0362 1.05949 52.0152 1.20111 52.0237 1.34252V11.999C52.0178 12.6479 52.1375 13.2918 52.3761 13.8953C52.6031 14.4765 52.9588 14.9986 53.4166 15.4225C53.9009 15.8698 54.4721 16.2126 55.0948 16.4294C55.8808 16.6808 56.7031 16.7999 57.5281 16.7818C58.3277 16.802 59.1225 16.6533 59.8608 16.3455C60.4995 16.0739 61.072 15.6674 61.539 15.154C61.9788 14.667 62.3156 14.0962 62.5291 13.4758C62.746 12.7921 62.8536 12.0785 62.848 11.3613V9.88448C62.8527 9.1288 62.7452 8.37661 62.5291 7.65249C62.3387 7.00235 62.0191 6.39731 61.5893 5.87362ZM60.0118 11.3613C60.0535 12.1118 59.8074 12.85 59.3238 13.4254C59.0977 13.6804 58.8179 13.8819 58.5044 14.0154C58.191 14.1489 57.8518 14.2111 57.5113 14.1974C56.8221 14.2216 56.1404 14.0468 55.5479 13.694C55.2829 13.5301 55.0688 13.2958 54.9295 13.0172C54.7902 12.7386 54.7312 12.4267 54.7591 12.1165V9.33068C54.7428 8.98405 54.8019 8.638 54.9323 8.31641C55.0627 7.99482 55.2612 7.70533 55.5143 7.46789C55.9901 7.08601 56.5824 6.87871 57.1925 6.88053C57.5581 6.86463 57.923 6.92506 58.2639 7.05797C58.6048 7.19088 58.9144 7.39336 59.1727 7.65249C59.7148 8.27772 59.9864 9.09261 59.9279 9.91804L60.0118 11.3613Z" fill="#DBDBDB"/>
<path d="M67.2615 -2.11578e-05C66.883 -0.0156758 66.5122 0.109931 66.2211 0.352397C66.1004 0.44273 66.0016 0.558987 65.9319 0.692593C65.8622 0.8262 65.8234 0.97375 65.8183 1.12436V1.67816C65.8234 1.82877 65.8622 1.97632 65.9319 2.10993C66.0016 2.24354 66.1004 2.35979 66.2211 2.45013C66.5122 2.69259 66.883 2.8182 67.2615 2.80255C67.6247 2.8171 67.9794 2.69084 68.2517 2.45013C68.3675 2.35656 68.4619 2.23923 68.5285 2.10605C68.5951 1.97288 68.6323 1.82696 68.6376 1.67816V1.10758C68.6344 0.960086 68.5997 0.814979 68.5361 0.681887C68.4724 0.548794 68.3812 0.43076 68.2684 0.335616C67.9894 0.0968295 67.6281 -0.0235944 67.2615 -2.11578e-05Z" fill="#DBDBDB"/>
<path d="M67.2615 4.27936C66.883 4.2637 66.5122 4.38931 66.2211 4.63178C66.1013 4.72293 66.0031 4.83937 65.9335 4.9728C65.8639 5.10623 65.8246 5.25337 65.8183 5.40374V15.6071C65.8246 15.7575 65.8639 15.9046 65.9335 16.038C66.0031 16.1715 66.1013 16.2879 66.2211 16.3791C66.5122 16.6215 66.883 16.7471 67.2615 16.7315C67.6249 16.7478 67.9803 16.6213 68.2517 16.3791C68.3644 16.2839 68.4556 16.1659 68.5193 16.0328C68.583 15.8997 68.6176 15.7546 68.6209 15.6071V5.40374C68.6176 5.25625 68.583 5.11114 68.5193 4.97805C68.4556 4.84496 68.3644 4.72692 68.2517 4.63178C67.9803 4.38952 67.6249 4.26303 67.2615 4.27936Z" fill="#DBDBDB"/>
<path d="M78.9921 14.382C78.8892 14.2743 78.7634 14.1912 78.6239 14.1389C78.4844 14.0866 78.3349 14.0665 78.1866 14.0799C77.9302 14.0487 77.671 14.0487 77.4146 14.0799C77.1471 14.1123 76.8766 14.1123 76.6091 14.0799C76.4613 14.0902 76.3132 14.0633 76.1784 14.0017C76.0436 13.9402 75.9263 13.8459 75.8371 13.7275C75.6289 13.3588 75.5191 12.9427 75.5183 12.5192V6.71271H77.2972C77.4315 6.71305 77.5646 6.68649 77.6885 6.63461C77.8124 6.58274 77.9247 6.50658 78.0188 6.41063C78.1262 6.30332 78.2101 6.17474 78.265 6.03314C78.3199 5.89154 78.3447 5.74003 78.3376 5.58832C78.3407 5.4446 78.3139 5.30181 78.2591 5.16894C78.2042 5.03608 78.1224 4.91603 78.0188 4.81636C77.9247 4.72041 77.8124 4.64426 77.6885 4.59238C77.5646 4.5405 77.4315 4.51395 77.2972 4.51429H75.5183V2.06414V2.18161C75.5262 2.05395 75.4956 1.92685 75.4303 1.81683C75.3651 1.70681 75.2683 1.61894 75.1525 1.56465C75.0367 1.51037 74.9072 1.49216 74.7809 1.5124C74.6546 1.53264 74.5373 1.59039 74.4442 1.67816L70.9201 5.60511C70.8336 5.69715 70.7764 5.81281 70.7557 5.93742C70.735 6.06202 70.7518 6.18996 70.8039 6.30501C70.856 6.42006 70.9412 6.51704 71.0485 6.58365C71.1558 6.65026 71.2805 6.68349 71.4067 6.67914H72.7828V12.4185C72.6622 13.6033 72.9654 14.7926 73.6387 15.7749C73.9926 16.1286 74.4188 16.4017 74.888 16.5755C75.3572 16.7493 75.8584 16.8197 76.3574 16.7818C76.7205 16.807 77.085 16.807 77.4482 16.7818C77.7606 16.7408 78.0657 16.6561 78.3544 16.5301C78.6014 16.4266 78.8201 16.2655 78.9921 16.0602C79.1555 15.8497 79.2387 15.588 79.2271 15.3218C79.2529 15.1574 79.2454 14.9895 79.205 14.828C79.1646 14.6666 79.0923 14.5149 78.9921 14.382Z" fill="#DBDBDB"/>
<path d="M15.9427 0.21817L13.4255 3.57454H23.4946V13.6436H3.35637V3.57454H13.4255L10.9082 0.21817H3.35637C2.4662 0.21817 1.6125 0.571786 0.983057 1.20123C0.353616 1.83067 0 2.68437 0 3.57454L0 13.6436C0 14.5338 0.353616 15.3875 0.983057 16.0169C1.6125 16.6464 2.4662 17 3.35637 17H23.4946C24.3847 17 25.2384 16.6464 25.8679 16.0169C26.4973 15.3875 26.8509 14.5338 26.8509 13.6436V3.57454C26.8509 2.68437 26.4973 1.83067 25.8679 1.20123C25.2384 0.571786 24.3847 0.21817 23.4946 0.21817H15.9427Z" fill="#1AA86E"/>
<path d="M10.0691 6.93091H6.71277V10.2873H10.0691V6.93091Z" fill="#1AA86E"/>
<path d="M20.1382 6.93091H16.7818V10.2873H20.1382V6.93091Z" fill="#1AA86E"/>
</svg>
