<svg width="14" height="14" viewBox="0 0 14 14" fill="none" xmlns="http://www.w3.org/2000/svg">
<mask id="mask0" mask-type="alpha" maskUnits="userSpaceOnUse" x="1" y="1" width="12" height="12">
<path fill-rule="evenodd" clip-rule="evenodd" d="M1.16675 1.16669H12.5282V12.5283H1.16675V1.16669Z" fill="white"/>
</mask>
<g mask="url(#mask0)">
<path fill-rule="evenodd" clip-rule="evenodd" d="M6.84783 2.04169C4.19775 2.04169 2.04175 4.1971 2.04175 6.84719C2.04175 9.49727 4.19775 11.6533 6.84783 11.6533C9.49733 11.6533 11.6533 9.49727 11.6533 6.84719C11.6533 4.1971 9.49733 2.04169 6.84783 2.04169ZM6.84783 12.5283C3.71533 12.5283 1.16675 9.97969 1.16675 6.84719C1.16675 3.71469 3.71533 1.16669 6.84783 1.16669C9.98033 1.16669 12.5283 3.71469 12.5283 6.84719C12.5283 9.97969 9.98033 12.5283 6.84783 12.5283Z" fill="#969696"/>
</g>
<mask id="mask1" mask-type="alpha" maskUnits="userSpaceOnUse" x="10" y="10" width="3" height="4">
<path fill-rule="evenodd" clip-rule="evenodd" d="M10.0566 10.329H12.9873V13.2543H10.0566V10.329Z" fill="white"/>
</mask>
<g mask="url(#mask1)">
<path fill-rule="evenodd" clip-rule="evenodd" d="M12.55 13.2543C12.4385 13.2543 12.3265 13.2117 12.2408 13.1266L10.1851 11.0767C10.0142 10.9058 10.0136 10.6287 10.1845 10.4578C10.3549 10.2857 10.632 10.2869 10.8035 10.4566L12.8591 12.5071C13.03 12.678 13.0306 12.9545 12.8597 13.1254C12.7745 13.2117 12.662 13.2543 12.55 13.2543Z" fill="#969696"/>
</g>
</svg>
